<?xml version="1.0" encoding="UTF-8" standalone="no"?>
<!DOCTYPE svg PUBLIC "-//W3C//DTD SVG 1.1//EN"
 "http://www.w3.org/Graphics/SVG/1.1/DTD/svg11.dtd">
<!-- Generated by graphviz version 2.40.1 (20161225.0304)
 -->
<!-- Title: dependencies Pages: 1 -->
<svg width="504pt" height="211pt"
 viewBox="0.00 0.00 504.00 211.00" xmlns="http://www.w3.org/2000/svg" xmlns:xlink="http://www.w3.org/1999/xlink">
<g id="graph0" class="graph" transform="scale(1 1) rotate(0) translate(4 207)">
<title>dependencies</title>
<polygon fill="#ffffff" stroke="transparent" points="-4,4 -4,-207 500,-207 500,4 -4,4"/>
<text text-anchor="start" x="227.0091" y="-42.4" font-family="sans-serif" font-weight="bold" font-size="14.00" fill="#000000">Legend</text>
<polygon fill="#ffffb3" stroke="transparent" points="14,-10 14,-30 34,-30 34,-10 14,-10"/>
<text text-anchor="start" x="37.629" y="-15.4" font-family="sans-serif" font-size="14.00" fill="#000000"> &#160;Declarations</text>
<polygon fill="#8dd3c7" stroke="transparent" points="127,-10 127,-30 147,-30 147,-10 127,-10"/>
<text text-anchor="start" x="150.7251" y="-15.4" font-family="sans-serif" font-size="14.00" fill="#000000"> &#160;Module</text>
<polygon fill="#80b1d3" stroke="transparent" points="213,-10 213,-30 233,-30 233,-10 213,-10"/>
<text text-anchor="start" x="236.7812" y="-15.4" font-family="sans-serif" font-size="14.00" fill="#000000"> &#160;Bootstrap</text>
<polygon fill="#fdb462" stroke="transparent" points="310,-10 310,-30 330,-30 330,-10 310,-10"/>
<text text-anchor="start" x="333.6732" y="-15.4" font-family="sans-serif" font-size="14.00" fill="#000000"> &#160;Providers</text>
<polygon fill="#fb8072" stroke="transparent" points="406,-10 406,-30 426,-30 426,-10 406,-10"/>
<text text-anchor="start" x="429.7258" y="-15.4" font-family="sans-serif" font-size="14.00" fill="#000000"> &#160;Exports</text>
<g id="clust1" class="cluster">
<title>cluster_ListusersPageModule</title>
<polygon fill="none" stroke="#000000" stroke-dasharray="1,5" points="82,-70 82,-195 414,-195 414,-70 82,-70"/>
</g>
<g id="clust2" class="cluster">
<title>cluster_ListusersPageModule_declarations</title>
<polygon fill="none" stroke="#000000" points="296,-78 296,-130 406,-130 406,-78 296,-78"/>
</g>
<g id="clust4" class="cluster">
<title>cluster_ListusersPageModule_imports</title>
<polygon fill="none" stroke="#000000" points="90,-78 90,-130 288,-130 288,-78 90,-78"/>
</g>
<!-- ListusersPage -->
<g id="node1" class="node">
<title>ListusersPage</title>
<polygon fill="#ffffb3" stroke="#000000" points="397.7549,-122 304.2451,-122 304.2451,-86 397.7549,-86 397.7549,-122"/>
<text text-anchor="middle" x="351" y="-99.8" font-family="Times,serif" font-size="14.00" fill="#000000">ListusersPage</text>
</g>
<!-- ListusersPageModule -->
<g id="node2" class="node">
<title>ListusersPageModule</title>
<polygon fill="#8dd3c7" stroke="#000000" points="331.8047,-187 328.8047,-191 307.8047,-191 304.8047,-187 194.1953,-187 194.1953,-151 331.8047,-151 331.8047,-187"/>
<text text-anchor="middle" x="263" y="-164.8" font-family="Times,serif" font-size="14.00" fill="#000000">ListusersPageModule</text>
</g>
<!-- ListusersPage&#45;&gt;ListusersPageModule -->
<g id="edge1" class="edge">
<title>ListusersPage&#45;&gt;ListusersPageModule</title>
<path fill="none" stroke="#000000" d="M317.8875,-122.1061C317.8875,-122.1061 317.8875,-140.991 317.8875,-140.991"/>
<polygon fill="#000000" stroke="#000000" points="314.3875,-140.9909 317.8875,-150.991 321.3875,-140.991 314.3875,-140.9909"/>
</g>
<!-- ListusersPageRoutingModule -->
<g id="node3" class="node">
<title>ListusersPageRoutingModule</title>
<polygon fill="#8dd3c7" stroke="#000000" points="280.4227,-122 277.4227,-126 256.4227,-126 253.4227,-122 97.5773,-122 97.5773,-86 280.4227,-86 280.4227,-122"/>
<text text-anchor="middle" x="189" y="-99.8" font-family="Times,serif" font-size="14.00" fill="#000000">ListusersPageRoutingModule</text>
</g>
<!-- ListusersPageRoutingModule&#45;&gt;ListusersPageModule -->
<g id="edge2" class="edge">
<title>ListusersPageRoutingModule&#45;&gt;ListusersPageModule</title>
<path fill="none" stroke="#000000" d="M237.2795,-122.1061C237.2795,-122.1061 237.2795,-140.991 237.2795,-140.991"/>
<polygon fill="#000000" stroke="#000000" points="233.7795,-140.9909 237.2795,-150.991 240.7795,-140.991 233.7795,-140.9909"/>
</g>
</g>
</svg>
