<?xml version="1.0" encoding="UTF-8" standalone="no"?>
<!DOCTYPE svg PUBLIC "-//W3C//DTD SVG 1.1//EN"
 "http://www.w3.org/Graphics/SVG/1.1/DTD/svg11.dtd">
<!-- Generated by graphviz version 2.40.1 (20161225.0304)
 -->
<!-- Title: dependencies Pages: 1 -->
<svg width="504pt" height="211pt"
 viewBox="0.00 0.00 504.00 211.00" xmlns="http://www.w3.org/2000/svg" xmlns:xlink="http://www.w3.org/1999/xlink">
<g id="graph0" class="graph" transform="scale(1 1) rotate(0) translate(4 207)">
<title>dependencies</title>
<polygon fill="#ffffff" stroke="transparent" points="-4,4 -4,-207 500,-207 500,4 -4,4"/>
<text text-anchor="start" x="227.0091" y="-42.4" font-family="sans-serif" font-weight="bold" font-size="14.00" fill="#000000">Legend</text>
<polygon fill="#ffffb3" stroke="transparent" points="14,-10 14,-30 34,-30 34,-10 14,-10"/>
<text text-anchor="start" x="37.629" y="-15.4" font-family="sans-serif" font-size="14.00" fill="#000000"> &#160;Declarations</text>
<polygon fill="#8dd3c7" stroke="transparent" points="127,-10 127,-30 147,-30 147,-10 127,-10"/>
<text text-anchor="start" x="150.7251" y="-15.4" font-family="sans-serif" font-size="14.00" fill="#000000"> &#160;Module</text>
<polygon fill="#80b1d3" stroke="transparent" points="213,-10 213,-30 233,-30 233,-10 213,-10"/>
<text text-anchor="start" x="236.7812" y="-15.4" font-family="sans-serif" font-size="14.00" fill="#000000"> &#160;Bootstrap</text>
<polygon fill="#fdb462" stroke="transparent" points="310,-10 310,-30 330,-30 330,-10 310,-10"/>
<text text-anchor="start" x="333.6732" y="-15.4" font-family="sans-serif" font-size="14.00" fill="#000000"> &#160;Providers</text>
<polygon fill="#fb8072" stroke="transparent" points="406,-10 406,-30 426,-30 426,-10 406,-10"/>
<text text-anchor="start" x="429.7258" y="-15.4" font-family="sans-serif" font-size="14.00" fill="#000000"> &#160;Exports</text>
<g id="clust1" class="cluster">
<title>cluster_DocumentosPageModule</title>
<polygon fill="none" stroke="#000000" stroke-dasharray="1,5" points="62,-70 62,-195 434,-195 434,-70 62,-70"/>
</g>
<g id="clust2" class="cluster">
<title>cluster_DocumentosPageModule_declarations</title>
<polygon fill="none" stroke="#000000" points="296,-78 296,-130 426,-130 426,-78 296,-78"/>
</g>
<g id="clust4" class="cluster">
<title>cluster_DocumentosPageModule_imports</title>
<polygon fill="none" stroke="#000000" points="70,-78 70,-130 288,-130 288,-78 70,-78"/>
</g>
<!-- DocumentosPage -->
<g id="node1" class="node">
<title>DocumentosPage</title>
<polygon fill="#ffffb3" stroke="#000000" points="417.9734,-122 304.0266,-122 304.0266,-86 417.9734,-86 417.9734,-122"/>
<text text-anchor="middle" x="361" y="-99.8" font-family="Times,serif" font-size="14.00" fill="#000000">DocumentosPage</text>
</g>
<!-- DocumentosPageModule -->
<g id="node2" class="node">
<title>DocumentosPageModule</title>
<polygon fill="#8dd3c7" stroke="#000000" points="341.5239,-187 338.5239,-191 317.5239,-191 314.5239,-187 184.4761,-187 184.4761,-151 341.5239,-151 341.5239,-187"/>
<text text-anchor="middle" x="263" y="-164.8" font-family="Times,serif" font-size="14.00" fill="#000000">DocumentosPageModule</text>
</g>
<!-- DocumentosPage&#45;&gt;DocumentosPageModule -->
<g id="edge1" class="edge">
<title>DocumentosPage&#45;&gt;DocumentosPageModule</title>
<path fill="none" stroke="#000000" d="M322.8875,-122.1061C322.8875,-122.1061 322.8875,-140.991 322.8875,-140.991"/>
<polygon fill="#000000" stroke="#000000" points="319.3875,-140.9909 322.8875,-150.991 326.3875,-140.991 319.3875,-140.9909"/>
</g>
<!-- DocumentosPageRoutingModule -->
<g id="node3" class="node">
<title>DocumentosPageRoutingModule</title>
<polygon fill="#8dd3c7" stroke="#000000" points="280.1413,-122 277.1413,-126 256.1413,-126 253.1413,-122 77.8587,-122 77.8587,-86 280.1413,-86 280.1413,-122"/>
<text text-anchor="middle" x="179" y="-99.8" font-family="Times,serif" font-size="14.00" fill="#000000">DocumentosPageRoutingModule</text>
</g>
<!-- DocumentosPageRoutingModule&#45;&gt;DocumentosPageModule -->
<g id="edge2" class="edge">
<title>DocumentosPageRoutingModule&#45;&gt;DocumentosPageModule</title>
<path fill="none" stroke="#000000" d="M232.2795,-122.1061C232.2795,-122.1061 232.2795,-140.991 232.2795,-140.991"/>
<polygon fill="#000000" stroke="#000000" points="228.7795,-140.9909 232.2795,-150.991 235.7795,-140.991 228.7795,-140.9909"/>
</g>
</g>
</svg>
